com\hombrepai\pepinillomvc\model\Player.class
com\hombrepai\pepinillomvc\boot\DataLoader.class
com\hombrepai\pepinillomvc\PepinillomvcApplication.class
com\hombrepai\pepinillomvc\controller\AdministratorController.class
com\hombrepai\pepinillomvc\repository\AdministratorRepository.class
com\hombrepai\pepinillomvc\model\Administrator.class
com\hombrepai\pepinillomvc\controller\IndexController.class
com\hombrepai\pepinillomvc\controller\PlayerController.class
com\hombrepai\pepinillomvc\repository\PlayerRepository.class
