C:\Users\Alberto\repos\pepinillo-web\src\main\java\com\hombrepai\pepinillomvc\controller\IndexController.java
C:\Users\Alberto\repos\pepinillo-web\src\main\java\com\hombrepai\pepinillomvc\model\Administrator.java
C:\Users\Alberto\repos\pepinillo-web\src\main\java\com\hombrepai\pepinillomvc\repository\AdministratorRepository.java
C:\Users\Alberto\repos\pepinillo-web\src\main\java\com\hombrepai\pepinillomvc\model\Player.java
C:\Users\Alberto\repos\pepinillo-web\src\main\java\com\hombrepai\pepinillomvc\controller\PlayerController.java
C:\Users\Alberto\repos\pepinillo-web\src\main\java\com\hombrepai\pepinillomvc\repository\PlayerRepository.java
C:\Users\Alberto\repos\pepinillo-web\src\main\java\com\hombrepai\pepinillomvc\controller\AdministratorController.java
C:\Users\Alberto\repos\pepinillo-web\src\main\java\com\hombrepai\pepinillomvc\boot\DataLoader.java
C:\Users\Alberto\repos\pepinillo-web\src\main\java\com\hombrepai\pepinillomvc\PepinillomvcApplication.java
